<?xml version="1.0" standalone="no"?>
<!DOCTYPE svg PUBLIC "-//W3C//DTD SVG 20010904//EN"
 "http://www.w3.org/TR/2001/REC-SVG-20010904/DTD/svg10.dtd">
<svg version="1.0" xmlns="http://www.w3.org/2000/svg"
 width="150.000000pt" height="150.000000pt" viewBox="0 0 150.000000 150.000000"
 preserveAspectRatio="xMidYMid meet">
<metadata>
Created by potrace 1.11, written by Peter Selinger 2001-2013
</metadata>
<g transform="translate(0.000000,150.000000) scale(0.100000,-0.100000)"
fill="#000000" stroke="none">
<path d="M0 750 l0 -750 750 0 750 0 0 750 0 750 -750 0 -750 0 0 -750z m1400
10 l0 -650 -655 0 -655 0 0 650 0 650 655 0 655 0 0 -650z"/>
<path d="M100 760 l0 -640 645 0 645 0 0 640 0 640 -645 0 -645 0 0 -640z
m170 550 c24 -13 40 -62 40 -125 0 -99 -27 -135 -101 -135 l-29 0 0 135 0 135
36 0 c19 0 44 -4 54 -10z m175 -6 c11 -12 15 -30 13 -63 -3 -41 -7 -48 -35
-61 -31 -14 -33 -18 -33 -72 0 -51 -2 -58 -20 -58 -19 0 -20 7 -20 135 l0 135
39 0 c23 0 46 -7 56 -16z m725 -859 c0 -10 -10 -15 -30 -15 -29 0 -30 -2 -30
-45 0 -41 2 -45 25 -45 16 0 25 -6 25 -15 0 -9 -9 -15 -25 -15 -24 0 -25 -3
-25 -60 0 -53 -2 -60 -20 -60 -19 0 -20 7 -20 135 l0 135 50 0 c38 0 50 -4 50
-15z m130 0 c0 -10 -10 -15 -30 -15 -29 0 -30 -2 -30 -45 0 -41 2 -45 25 -45
16 0 25 -6 25 -15 0 -9 -9 -15 -25 -15 -23 0 -25 -4 -25 -45 0 -43 1 -45 30
-45 20 0 30 -5 30 -15 0 -11 -12 -15 -50 -15 l-50 0 0 135 0 135 50 0 c38 0
50 -4 50 -15z"/>
<path d="M220 1185 c0 -58 3 -105 6 -105 3 0 14 5 25 10 16 9 19 22 19 93 0
82 -9 107 -37 107 -10 0 -13 -26 -13 -105z"/>
<path d="M390 1244 c0 -46 13 -55 33 -22 13 20 0 68 -18 68 -11 0 -15 -12 -15
-46z"/>
</g>
</svg>
